{
    "dev": {
        "infuraNode": "https://ropsten.infura.io/v3/85a64e583b4948fcb59a43c5fee7192a",
        "accountAddress": "0xDd186e4D7B3f3FDF1AC96c8a734f870A66fAfAbe",
        "privateAccountKey": "0x99ecfbfa1d80e0ae66f85061b75f9c60782ad17067a335930f719abd047ff845",
        "rawPrivateAccountKey": "99ecfbfa1d80e0ae66f85061b75f9c60782ad17067a335930f719abd047ff845",
        "publicAccountKey": "",
        "deploymentTxHash": "0x31db0e90e15f5a51fd26844e9eb1241d24a99fa1585b66b423017453b7161687",
        "contractAddress":"0x10A9a4C77938f9c220A1AAf7CAff599e4FcaCEc9",
        "contractAddressLegacy": "0x99493ad00f930db451a928e5485740923054a0d4"
    },
    "local": {
        "infuraNode": "http://127.0.0.1:7545",
        "accountAddress": "0xD542277bFf92b1a5F98BC43059b81e17ce7feadC",
        "privateAccountKey": "0x16b25ccbe9712ded07b964df463d02608813153ae6d92471325c198c66b8f954",
        "rawPrivateAccountKey": "16b25ccbe9712ded07b964df463d02608813153ae6d92471325c198c66b8f954",
        "publicAccountKey": "",
        "contractAddress":"0xe8f371c15fe7301e9F80d453Fd85669a504711C9"
    }
}

